id,name,station_ids
01,Line 1,"['1', '2', '3', '4', '78', '13', '70', '81', '6', '21', '110']"
02,Line 2,"['42', '27', '102', '104', '8', '33', '38', '43', '11', '53', '16']"
03,Line 3,"['9', '99', '45', '64', '12', '7', '69', '79', '94', '19', '96']"
04,Line 4,"['21', '39', '84', '32', '105', '100', '77', '76', '80', '75', '51']"
05,Line 5,"['97', '10', '72', '67', '26', '71', '66', '44', '74', '109', '60']"
06,Line 6,"['41', '5', '107', '89', '31', '90', '61', '85', '61', '58', '23']"
07,Line 7,"['35', '101', '36', '11', '20', '68', '86', '25', '57', '34', '82']"
08,Line 8,"['93', '101', '88', '28', '91', '62', '87', '71', '40', '17', '31']"
09,Line 9,"['14', '95', '15', '54', '91', '22', '56', '41', '30', '48', '50']"
10,Line 10,"['37', '24', '59', '46', '98', '29', '1', '65', '73', '108', '103']"
11,Line 11,"['63', '18', '49', '52', '51', '81', '55', '106', '92', '47', '83']"
